…
# Quick look
data_tidy
```

    ## Source: local data frame [40 x 3]
    ## Groups: Group [?]
    ## 
    ##        Group    ID     mean
    ##        <chr> <int>    <dbl>
    ## 1  Analgesic     1 24.33333
    ## 2  Analgesic     2 26.00000
    ## 3  Analgesic     3 24.66667
    ## 4  Analgesic     4 23.66667
    ## 5  Analgesic     5 25.00000
    ## 6  Analgesic     6 23.66667
    ## 7  Analgesic     7 26.66667
    ## 8  Analgesic     8 23.33333
    ## 9  Analgesic     9 22.66667
    ## 10 Analgesic    10 24.00000
    ## # ... with 30 more rows
…
# Import data
#############
data <- read_csv('https://dl.dropboxusercontent.com/u/11805474/painblogr/biostats/assignments/chick-weights.csv?dl=1')

# Quick look
############
data
```

    ## # A tibble: 71 × 2
    ##    weight      feed
    ##     <int>     <chr>
    ## 1     179 horsebean
    ## 2     160 horsebean
    ## 3     136 horsebean
    ## 4     227 horsebean
    ## 5     217 horsebean
    ## 6     168 horsebean
    ## 7     108 horsebean
    ## 8     124 horsebean
    ## 9     143 horsebean
    ## 10    140 horsebean
    ## # ... with 61 more rows
…
# Import data
#############
data <- read_csv('https://dl.dropboxusercontent.com/u/11805474/painblogr/biostats/assignments/gastroenteritis.csv')

# Quick look
############
data
```

    ## # A tibble: 1,094 × 2
    ##        Consumption Outcome
    ##              <chr>   <chr>
    ## 1  < 1 glasses/day     ill
    ## 2  < 1 glasses/day     ill
    ## 3  < 1 glasses/day     ill
    ## 4  < 1 glasses/day     ill
    ## 5  < 1 glasses/day     ill
    ## 6  < 1 glasses/day     ill
    ## 7  < 1 glasses/day     ill
    ## 8  < 1 glasses/day     ill
    ## 9  < 1 glasses/day     ill
    ## 10 < 1 glasses/day     ill
    ## # ... with 1,084 more rows
…
